'game_date',
 'competition_id',
 'away_team_name',
 'competition_name',
 'matchday',
 'season_name',
 'season_id',
 'home_team_id',
 'away_team_id',
 'period_1_start',
 'period_2_start',
 'home_team_name',
 'min',
 'event_id',
 'timestamp',
 'type_id',
 'period_id',
 'team_id',
 'sec',
 'last_modified',
 'y',
 'x',
 'outcome',
 'id' -> vire